…
### Game reviews
Use `gamereviews(id)` to scrape all reviews that were written for a specific game
```julia
julia> DataFrame(gamereviews(188))
Scraping 15700 reviews for Go... 100%|█████████████████████| Time: 0:06:31
15700×5 DataFrame
   Row │ id     name    username          rating   comment                       ⋯
       │ Int64  String  String            Float32  String                        ⋯
───────┼──────────────────────────────────────────────────────────────────────────
     1 │   188  Go      xenocles             10.0  My all time favourite 'classi ⋯
     2 │   188  Go      guus                 10.0  The mother of all strategy ga
     3 │   188  Go      Varthlokkur          10.0
     4 │   188  Go      Hiroshi Ishikawa     10.0  Simple rule yet extremely dee
     5 │   188  Go      layotte              10.0                                ⋯
   ⋮   │   ⋮      ⋮            ⋮             ⋮                     ⋮             ⋱
 15696 │   188  Go      aircastle             1.0
 15697 │   188  Go      ashleybobal53         1.0
 15698 │   188  Go      danperrault           1.0
 15699 │   188  Go      vikings40             1.0                                ⋯
 15700 │   188  Go      akaiready             1.0
                                                   1 column and 15690 rows omitted
```
…
